{
  "type": "service_account",
  "project_id": "strong-land-329801",
  "private_key_id": "4a5fef33eb142f1d17b0275e3fba08a8ae0eca20",
  "private_key": "-----BEGIN PRIVATE KEY-----\nMIIEvwIBADANBgkqhkiG9w0BAQEFAASCBKkwggSlAgEAAoIBAQC2F18+tsnMcrpm\nUsvXkwg9Rb1kTrwavxERQWX9rv4S3JEnJilgkKnKrh7v3YXKEjKFaf44mCqVL9MW\nnjCN20eU1sjIhf7X0qST2wvLut7B54HDdntSWeMPOmKF7qZFbzi6Q4MM7u9ZaFNx\nI0j3cTJaYrHo/7i/082kKcUg4pAS955IJDorD1xTE3/liCIrF+gzpYUTjDBIeN6E\nSFnsPWF36XH4Idwre7B/vZVHJurfbEeTCk7z9NQ9TN1t6VjG+Cw1/Hq839mLzdG6\ni1EoWUtigu+hRUSeQ3W2lHE/aCpO5x9kcA13hn3bmj393frc20QJHjaAtziRl63+\nbl1Xr5kdAgMBAAECggEAOeW4jRJFm9Im3n4Y/lRr3D+edpRqTv7NiHUI3t6TPqAP\nLyl9Io0cz6sJfy8qaRPcKHuJL6mCcKkiLyDhQ1mjqvmYIdopK6p4VeLiH0ctqO3Z\nXrL/hzG5dpAT344AJDe3C9KHisc2J3F6hpC3lKXTYtXax8D3l1bbHgWB/nDLapvz\n1GQ/n6Muy8dTTu+a0jx5caF4PvhSvDe4yH0Fyuph5hcN9NtqCSe6aYA1qamRGus5\niZggdWxGp+SHUbxFYKIXFnHw96IlXJr19BcOLNbasTh/GQovCbiCpK5W+hBzw4IC\nWkMjvxmrLd0ja8tJ3P81h30j/9u4TyQBV5d01jxhaQKBgQDZTsxLVCaH5wDcGY2o\njalXhwywAqiTjs0zehSo25fLQ4My1u1+jNBM5bS/eqWJ1fYNtLGB9S+u8m1MZ2hG\nBuVRP5bBYHw3ZU+cQ0Rnx4t9UkEoO4ENCPtP3rx3VqR7hUN+Qy/kPe+fLrkeRsQN\n69CpHzJopbm4xAr0om+XqAffrwKBgQDWg1rhmO7LileYilCY/lJvk5Kw8SMU2AJw\nVp5ZRoDRu7KJlFM3HGADGSeVRz6WRndgEMtSvOmCUHX44bPfEULYTWOLZQyEzdBq\nNLQAWlRI9tYhsyXVsgjsaEHH7Ym/ZdYsMhAmcg88vKZV4bjs6dqJ7U25TV6M9k7s\nX2aTyYma8wKBgQDSWRIsAKLjflo4s4uKEsZO8Wz4mzouy1YadBu3cAi5OvqupZly\nnD+tj9SsXL4MdE4e6j/A+mNTx1rBUH+A+X/Ua+cz/H+A59JuAjce9esyPgLQPPko\ncv9BSuvH4NiKsG6qs8KR/toKjiGnCv0QNKnga1BSN8lU7n9kWjAG7yHgBQKBgQCj\nPgjeHzSx/lBUzAUzuG5hbIs4TfkldpC8jp4oUCfd85mVayO8j8Jc+TqPNk1hrLRR\njdY823hT7Akq4g+w1IDq/FGhlb9mHP3apMrKbfMwJ2+i66MCMV7rERfmHlUyKzxG\nG78AktIXpXRrbL/+wqPFTKpWNpOacCJ1bNAx7S/jkwKBgQCInHUovkDAAbcnU5Gq\ncivZIWzespSI/a96hZ3fUoTsqbp1GKPl089QpjV3ldQWNuaGmlfaVDnypSYeStIR\npUxNia9WND6C0uMYC8TO7ksMda8HVjZ2kg9658QleUdd1afYsMOs1SFsmWwaRS4h\nQp6IJ1yY/fwwoPiyCi8rMkSbJQ==\n-----END PRIVATE KEY-----\n",
  "client_email": "test-599@strong-land-329801.iam.gserviceaccount.com",
  "client_id": "113132892050280324800",
  "auth_uri": "https://accounts.google.com/o/oauth2/auth",
  "token_uri": "https://oauth2.googleapis.com/token",
  "auth_provider_x509_cert_url": "https://www.googleapis.com/oauth2/v1/certs",
  "client_x509_cert_url": "https://www.googleapis.com/robot/v1/metadata/x509/test-599%40strong-land-329801.iam.gserviceaccount.com"
}
